…
#US_accidents <- read_csv('../input/us-accidents/US_Accidents_May19.csv')
load('eda.RData')
```

Now we can start with a general overview of the data, the `tibble`, and
a quick summary of the numeric variables using the basic R function
`summary`

``` r
## First view
US_accidents
```

    ## # A tibble: 2,243,939 x 49
    ##    ID    Source   TMC Severity Start_Time          End_Time           
    ##    <chr> <chr>  <dbl>    <dbl> <dttm>              <dttm>             
    ##  1 A-1   MapQu…   201        3 2016-02-08 05:46:00 2016-02-08 11:00:00
    ##  2 A-2   MapQu…   201        2 2016-02-08 06:07:59 2016-02-08 06:37:59
    ##  3 A-3   MapQu…   201        2 2016-02-08 06:49:27 2016-02-08 07:19:27
    ##  4 A-4   MapQu…   201        3 2016-02-08 07:23:34 2016-02-08 07:53:34
    ##  5 A-5   MapQu…   201        2 2016-02-08 07:39:07 2016-02-08 08:09:07
    ##  6 A-6   MapQu…   201        3 2016-02-08 07:44:26 2016-02-08 08:14:26
    ##  7 A-7   MapQu…   201        2 2016-02-08 07:59:35 2016-02-08 08:29:35
    ##  8 A-8   MapQu…   201        3 2016-02-08 07:59:58 2016-02-08 08:29:58
    ##  9 A-9   MapQu…   201        2 2016-02-08 08:00:40 2016-02-08 08:30:40
    ## 10 A-10  MapQu…   201        3 2016-02-08 08:10:04 2016-02-08 08:40:04
    ## # … with 2,243,929 more rows, and 43 more variables: Start_Lat <dbl>,
    ## #   Start_Lng <dbl>, End_Lat <lgl>, End_Lng <lgl>, `Distance(mi)` <dbl>,
    ## #   Description <chr>, Number <dbl>, Street <chr>, Side <chr>, City <chr>,
    ## #   County <chr>, State <chr>, Zipcode <chr>, Country <chr>,
    ## #   Timezone <chr>, Airport_Code <chr>, Weather_Timestamp <dttm>,
    ## #   `Temperature(F)` <dbl>, `Wind_Chill(F)` <dbl>, `Humidity(%)` <dbl>,
    ## #   `Pressure(in)` <dbl>, `Visibility(mi)` <dbl>, Wind_Direction <chr>,
    ## #   `Wind_Speed(mph)` <dbl>, `Precipitation(in)` <dbl>,
    ## #   Weather_Condition <chr>, Amenity <lgl>, Bump <lgl>, Crossing <lgl>,
…
